{
    "avaliacao": [
      {
        "id": "1",
        "descricao": "Muito Bom"
      },
      {
        "id": "2",
        "descricao": "Bom"
      },
      {
        "id": "3",
        "descricao": "Poderia melhorar"
      },
      {
        "id": "4",
        "descricao": "Ruim"
      }
    ]
  }
  